%YAML 1.1
%TAG !u! tag:unity3d.com,2011:
--- !u!1001 &4204297198574217449
PrefabInstance:
  m_ObjectHideFlags: 0
  serializedVersion: 2
  m_Modification:
    m_TransformParent: {fileID: 0}
    m_Modifications:
    - target: {fileID: 1920325297268671248, guid: fee0f5c5df590b9438bd3dcab63dca72, type: 3}
      propertyPath: m_RootOrder
      value: 0
      objectReference: {fileID: 0}
    - target: {fileID: 1920325297268671248, guid: fee0f5c5df590b9438bd3dcab63dca72, type: 3}
      propertyPath: m_LocalPosition.x
      value: -7.5330124
      objectReference: {fileID: 0}
    - target: {fileID: 1920325297268671248, guid: fee0f5c5df590b9438bd3dcab63dca72, type: 3}
      propertyPath: m_LocalPosition.y
      value: 4
      objectReference: {fileID: 0}
    - target: {fileID: 1920325297268671248, guid: fee0f5c5df590b9438bd3dcab63dca72, type: 3}
      propertyPath: m_LocalPosition.z
      value: -20.101519
      objectReference: {fileID: 0}
    - target: {fileID: 1920325297268671248, guid: fee0f5c5df590b9438bd3dcab63dca72, type: 3}
      propertyPath: m_LocalRotation.w
      value: 1
      objectReference: {fileID: 0}
    - target: {fileID: 1920325297268671248, guid: fee0f5c5df590b9438bd3dcab63dca72, type: 3}
      propertyPath: m_LocalRotation.x
      value: -0
      objectReference: {fileID: 0}
    - target: {fileID: 1920325297268671248, guid: fee0f5c5df590b9438bd3dcab63dca72, type: 3}
      propertyPath: m_LocalRotation.y
      value: -0
      objectReference: {fileID: 0}
    - target: {fileID: 1920325297268671248, guid: fee0f5c5df590b9438bd3dcab63dca72, type: 3}
      propertyPath: m_LocalRotation.z
      value: -0
      objectReference: {fileID: 0}
    - target: {fileID: 1920325297268671248, guid: fee0f5c5df590b9438bd3dcab63dca72, type: 3}
      propertyPath: m_LocalEulerAnglesHint.x
      value: 0
      objectReference: {fileID: 0}
    - target: {fileID: 1920325297268671248, guid: fee0f5c5df590b9438bd3dcab63dca72, type: 3}
      propertyPath: m_LocalEulerAnglesHint.y
      value: 0
      objectReference: {fileID: 0}
    - target: {fileID: 1920325297268671248, guid: fee0f5c5df590b9438bd3dcab63dca72, type: 3}
      propertyPath: m_LocalEulerAnglesHint.z
      value: 0
      objectReference: {fileID: 0}
    - target: {fileID: 1920325297268671343, guid: fee0f5c5df590b9438bd3dcab63dca72, type: 3}
      propertyPath: m_Name
      value: EF
      objectReference: {fileID: 0}
    - target: {fileID: 6295064541739095468, guid: fee0f5c5df590b9438bd3dcab63dca72, type: 3}
      propertyPath: m_Range
      value: 5
      objectReference: {fileID: 0}
    - target: {fileID: 6295064541739095468, guid: fee0f5c5df590b9438bd3dcab63dca72, type: 3}
      propertyPath: m_Color.b
      value: 0.85882354
      objectReference: {fileID: 0}
    - target: {fileID: 6295064541739095468, guid: fee0f5c5df590b9438bd3dcab63dca72, type: 3}
      propertyPath: m_Color.g
      value: 0.70980394
      objectReference: {fileID: 0}
    - target: {fileID: 6295064541739095468, guid: fee0f5c5df590b9438bd3dcab63dca72, type: 3}
      propertyPath: m_Color.r
      value: 0.023529412
      objectReference: {fileID: 0}
    - target: {fileID: 6295064541739095468, guid: fee0f5c5df590b9438bd3dcab63dca72, type: 3}
      propertyPath: m_Intensity
      value: 3
      objectReference: {fileID: 0}
    - target: {fileID: 6295064541739095468, guid: fee0f5c5df590b9438bd3dcab63dca72, type: 3}
      propertyPath: m_Shadows.m_Type
      value: 0
      objectReference: {fileID: 0}
    - target: {fileID: 6295064541739095468, guid: fee0f5c5df590b9438bd3dcab63dca72, type: 3}
      propertyPath: m_BounceIntensity
      value: 3
      objectReference: {fileID: 0}
    m_RemovedComponents: []
  m_SourcePrefab: {fileID: 100100000, guid: fee0f5c5df590b9438bd3dcab63dca72, type: 3}
